The Intel compilers are in your path. This is adequate for compiling and
running most codes. Source
/util/academic/intel/17.0/compilers_and_libraries_2017/linux/bin/compilervars.sh
for more features. 
 The MKL Libraries are in your library path. This is adequate for compiling and
running most codes. Source $MKL/bin/mklvars.sh" for more features. 
 Intel-MPI is in your path. This is adequate for compiling and running most
codes. Source the
/util/academic/intel/17.0/compilers_and_libraries_2017/linux/mpi/intel64/bin/mpivars.sh
file for more features. 

Currently Loaded Modules:
  1) intel/17.0   2) mkl/2017.0.1   3) intel-mpi/2017.0.1

 

srun: Job step aborted: Waiting up to 32 seconds for job step to finish.
slurmstepd: error: *** JOB 4100861 ON cpn-q06-31-01 CANCELLED AT 2020-09-27T13:52:31 DUE TO TIME LIMIT ***
slurmstepd: error: *** STEP 4100861.1 ON cpn-q06-31-01 CANCELLED AT 2020-09-27T13:52:31 DUE TO TIME LIMIT ***
forrtl: error (78): process killed (SIGTERM)
Image              PC                Routine            Line        Source             

Stack trace terminated abnormally.
forrtl: error (78): process killed (SIGTERM)
Image              PC                Routine            Line        Source             

Stack trace terminated abnormally.
forrtl: error (78): process killed (SIGTERM)
Image              PC                Routine            Line        Source             

Stack trace terminated abnormally.
forrtl: error (78): process killed (SIGTERM)
Image              PC                Routine            Line        Source             

Stack trace terminated abnormally.
forrtl: error (78): process killed (SIGTERM)
Image              PC                Routine            Line        Source             

Stack trace terminated abnormally.
forrtl: error (78): process killed (SIGTERM)
Image              PC                Routine            Line        Source             

Stack trace terminated abnormally.
forrtl: error (78): process killed (SIGTERM)
Image              PC                Routine            Line        Source             

Stack trace terminated abnormally.
forrtl: error (78): process killed (SIGTERM)
Image              PC                Routine            Line        Source             

Stack trace terminated abnormally.
forrtl: error (78): process killed (SIGTERM)
Image              PC                Routine            Line        Source             

Stack trace terminated abnormally.
forrtl: error (78): process killed (SIGTERM)
Image              PC                Routine            Line        Source             

Stack trace terminated abnormally.
forrtl: error (78): process killed (SIGTERM)
Image              PC                Routine            Line        Source             
vasp               00000000015E4AB1  Unknown               Unknown  Unknown
vasp               00000000015E2BEB  Unknown               Unknown  Unknown
vasp               00000000015629C4  Unknown               Unknown  Unknown
vasp               00000000015627D6  Unknown               Unknown  Unknown
vasp               00000000014FF279  Unknown               Unknown  Unknown
vasp               0000000001505EDC  Unknown               Unknown  Unknown
libpthread-2.17.s  00002B4C0DD865F0  Unknown               Unknown  Unknown
libmpi.so.12       00002B4C0CDACE7D  PMPIDI_CH3I_Progr     Unknown  Unknown

Stack trace terminated abnormally.
forrtl: error (78): process killed (SIGTERM)
Image              PC                Routine            Line        Source             
vasp               00000000015E4AB1  Unknown               Unknown  Unknown
vasp               00000000015E2BEB  Unknown               Unknown  Unknown
vasp               00000000015629C4  Unknown               Unknown  Unknown
vasp               00000000015627D6  Unknown               Unknown  Unknown
vasp               00000000014FF279  Unknown               Unknown  Unknown
vasp               0000000001505EDC  Unknown               Unknown  Unknown
libpthread-2.17.s  00002B2112EFB5F0  Unknown               Unknown  Unknown
libmpi.so.12       00002B2111F21C3F  PMPIDI_CH3I_Progr     Unknown  Unknown

Stack trace terminated abnormally.
forrtl: error (78): process killed (SIGTERM)
Image              PC                Routine            Line        Source             
vasp               00000000015E4AB1  Unknown               Unknown  Unknown
vasp               00000000015E2BEB  Unknown               Unknown  Unknown
vasp               00000000015629C4  Unknown               Unknown  Unknown
vasp               00000000015627D6  Unknown               Unknown  Unknown
vasp               00000000014FF279  Unknown               Unknown  Unknown
vasp               0000000001505EDC  Unknown               Unknown  Unknown
libpthread-2.17.s  00002B51354C05F0  Unknown               Unknown  Unknown
libmpi.so.12       00002B51344E6E7B  PMPIDI_CH3I_Progr     Unknown  Unknown

Stack trace terminated abnormally.
forrtl: error (78): process killed (SIGTERM)
Image              PC                Routine            Line        Source             
vasp               00000000015E4AB1  Unknown               Unknown  Unknown
vasp               00000000015E2BEB  Unknown               Unknown  Unknown
vasp               00000000015629C4  Unknown               Unknown  Unknown
vasp               00000000015627D6  Unknown               Unknown  Unknown
vasp               00000000014FF279  Unknown               Unknown  Unknown
vasp               0000000001505EDC  Unknown               Unknown  Unknown
libpthread-2.17.s  00002B992BC045F0  Unknown               Unknown  Unknown
libmpi.so.12       00002B992AC2AEFA  PMPIDI_CH3I_Progr     Unknown  Unknown

Stack trace terminated abnormally.
forrtl: error (78): process killed (SIGTERM)
Image              PC                Routine            Line        Source             
vasp               00000000015E4AB1  Unknown               Unknown  Unknown
vasp               00000000015E2BEB  Unknown               Unknown  Unknown
vasp               00000000015629C4  Unknown               Unknown  Unknown
vasp               00000000015627D6  Unknown               Unknown  Unknown
vasp               00000000014FF279  Unknown               Unknown  Unknown
vasp               0000000001505EDC  Unknown               Unknown  Unknown
libpthread-2.17.s  00002AE80EF3D5F0  Unknown               Unknown  Unknown
libmpi.so.12       00002AE80DF63C3F  PMPIDI_CH3I_Progr     Unknown  Unknown

Stack trace terminated abnormally.
forrtl: error (78): process killed (SIGTERM)
Image              PC                Routine            Line        Source             
vasp               00000000015E4AB1  Unknown               Unknown  Unknown
vasp               00000000015E2BEB  Unknown               Unknown  Unknown
vasp               00000000015629C4  Unknown               Unknown  Unknown
vasp               00000000015627D6  Unknown               Unknown  Unknown
vasp               00000000014FF279  Unknown               Unknown  Unknown
vasp               0000000001505EDC  Unknown               Unknown  Unknown
libpthread-2.17.s  00002B184FED35F0  Unknown               Unknown  Unknown
libc-2.17.so       00002B18504DABA9  syscall               Unknown  Unknown
libmpi.so.12.0     00002B184F166863  Unknown               Unknown  Unknown
libmpi.so.12.0     00002B184F164FF1  Unknown               Unknown  Unknown
libmpi.so.12       00002B184EEFA690  PMPIDI_CH3I_Progr     Unknown  Unknown

Stack trace terminated abnormally.
